<?xml version="1.0" encoding="utf-8"?>
<!-- Generator: Adobe Illustrator 23.0.3, SVG Export Plug-In . SVG Version: 6.00 Build 0)  -->
<svg version="1.1" id="Layer_1" xmlns="http://www.w3.org/2000/svg" xmlns:xlink="http://www.w3.org/1999/xlink" x="0px" y="0px"
	 viewBox="0 0 498 121" style="enable-background:new 0 0 498 121;" xml:space="preserve">
<style type="text/css">
	.st0{fill:#FFFFFF;}
</style>
<g>
	<path class="st0" d="M64.99,9.16C31.59,5.85,3.75,33.69,7.05,67.09c2.45,24.72,22.44,44.71,47.16,47.16
		c33.4,3.31,61.24-24.53,57.94-57.94C109.7,31.6,89.71,11.61,64.99,9.16z M63.27,89.64c-18.4,2.34-33.95-13.21-31.61-31.61
		c1.59-12.54,11.72-22.67,24.27-24.27c18.4-2.34,33.95,13.21,31.61,31.61C85.94,77.92,75.81,88.05,63.27,89.64z"/>
	<path class="st0" d="M140.49,11.25c-7.64,0-13.65,6.95-12.07,14.87c1.16,5.81,6.61,9.77,12.53,9.77l34.4,0l-53.53,70.62
		c-1.76,2.32-0.1,5.64,2.8,5.64l83.96,0c5.92,0,11.37-3.97,12.53-9.77c1.59-7.92-4.43-14.87-12.07-14.87h-41.91l53.49-70.56
		c1.77-2.34,0.1-5.7-2.83-5.7H140.49z"/>
	<path class="st0" d="M476,11.53c-5.72,1.2-9.64,6.53-9.64,12.37l0,41.04l-66.69-52.91c-2.32-1.84-5.75-0.19-5.75,2.78l0,84.73
		c0,5.84,3.93,11.17,9.64,12.37c7.97,1.68,15-4.36,15-12.04V58.47l66.69,52.91c2.32,1.84,5.75,0.19,5.75-2.78V23.57
		C491,15.89,483.97,9.85,476,11.53z"/>
	<path class="st0" d="M302.35,33.53c28.21,0,49.29,14.86,49.29,28.16c0,13.29-21.08,28.16-49.29,28.16
		c-28.21,0-49.29-14.86-49.29-28.16C253.06,48.4,274.14,33.53,302.35,33.53 M302.35,8.89c-40.83,0-73.93,23.64-73.93,52.8
		c0,29.16,33.1,52.8,73.93,52.8s73.93-23.64,73.93-52.8C376.28,32.53,343.18,8.89,302.35,8.89L302.35,8.89z"/>
</g>
</svg>
